\BOOKMARK [1][]{section.2}{1 Releaseb\374ndel - Proof of Concept}{}% 1
\BOOKMARK [1][]{section.3}{2 Releaseb\374ndel \205 Muss-Ziele erf\374llt}{}% 2
\BOOKMARK [1][]{section.4}{3 Releaseb\374ndel 3 \205 Ersten optionalen Ziele}{}% 3
\BOOKMARK [1][]{section.5}{4 Releaseb\374ndel \205 Restlichen Kann-Ziele}{}% 4
\BOOKMARK [1][]{section.6}{5 Releaseb\374ndle - Bugfixes}{}% 5
