\relax 
\providecommand\hyper@newdestlabel[2]{}
\providecommand*\new@tpo@label[2]{}
\catcode `"\active 
\catcode 95\active
\providecommand\HyperFirstAtBeginDocument{\AtBeginDocument}
\HyperFirstAtBeginDocument{\ifx\hyper@anchor\@undefined
\global\let\oldcontentsline\contentsline
\gdef\contentsline#1#2#3#4{\oldcontentsline{#1}{#2}{#3}}
\global\let\oldnewlabel\newlabel
\gdef\newlabel#1#2{\newlabelxx{#1}#2}
\gdef\newlabelxx#1#2#3#4#5#6{\oldnewlabel{#1}{{#2}{#3}}}
\AtEndDocument{\ifx\hyper@anchor\@undefined
\let\contentsline\oldcontentsline
\let\newlabel\oldnewlabel
\fi}
\fi}
\global\let\hyper@last\relax 
\gdef\HyperFirstAtBeginDocument#1{#1}
\providecommand\HyField@AuxAddToFields[1]{}
\providecommand\HyField@AuxAddToCoFields[2]{}
\babel@aux{ngerman}{}
\@writefile{toc}{\contentsline {section}{\numberline {1}Releaseb\IeC {\"u}ndel - Proof of Concept}{3}{section.2}}
\@writefile{toc}{\contentsline {section}{\numberline {2}Releaseb\IeC {\"u}ndel \IeC {\textendash } Muss-Ziele erf\IeC {\"u}llt}{3}{section.3}}
\@writefile{toc}{\contentsline {section}{\numberline {3}Releaseb\IeC {\"u}ndel 3 \IeC {\textendash } Ersten optionalen Ziele}{3}{section.4}}
\@writefile{toc}{\contentsline {section}{\numberline {4}Releaseb\IeC {\"u}ndel \IeC {\textendash } Restlichen Kann-Ziele}{3}{section.5}}
\@writefile{toc}{\contentsline {section}{\numberline {5}Releaseb\IeC {\"u}ndle - Bugfixes}{4}{section.6}}
\global\@namedef{scr@dte@section@lastmaxnumwidth}{10.85587pt}
