\babel@toc {ngerman}{}
\contentsline {section}{\numberline {1}Releaseb\IeC {\"u}ndel - Proof of Concept}{3}{section.2}
\contentsline {section}{\numberline {2}Releaseb\IeC {\"u}ndel \IeC {\textendash } Muss-Ziele erf\IeC {\"u}llt}{3}{section.3}
\contentsline {section}{\numberline {3}Releaseb\IeC {\"u}ndel 3 \IeC {\textendash } Ersten optionalen Ziele}{3}{section.4}
\contentsline {section}{\numberline {4}Releaseb\IeC {\"u}ndel \IeC {\textendash } Restlichen Kann-Ziele}{3}{section.5}
\contentsline {section}{\numberline {5}Releaseb\IeC {\"u}ndle - Bugfixes}{4}{section.6}
