\babel@toc {ngerman}{}
\contentsline {section}{\numberline {1}Visionen und Ziele}{3}{section.1}
\contentsline {section}{\numberline {2}Rahmenbedingungen und Produkteinsatz}{3}{section.2}
\contentsline {section}{\numberline {3}Grunds\IeC {\"a}tzliche Struktur- und Entwurfsprinzipien}{3}{section.3}
\contentsline {section}{\numberline {4}Struktur- und Entwurfsprinzipien einzelner Pakete}{4}{section.4}
\contentsline {section}{\numberline {5}Datenmodell}{4}{section.5}
\contentsline {section}{\numberline {6}Codedokumentation}{4}{section.6}
\contentsline {section}{\numberline {7}Glossar}{4}{section.7}
