\relax 
\providecommand\hyper@newdestlabel[2]{}
\providecommand*\new@tpo@label[2]{}
\catcode `"\active 
\catcode 95\active
\providecommand\HyperFirstAtBeginDocument{\AtBeginDocument}
\HyperFirstAtBeginDocument{\ifx\hyper@anchor\@undefined
\global\let\oldcontentsline\contentsline
\gdef\contentsline#1#2#3#4{\oldcontentsline{#1}{#2}{#3}}
\global\let\oldnewlabel\newlabel
\gdef\newlabel#1#2{\newlabelxx{#1}#2}
\gdef\newlabelxx#1#2#3#4#5#6{\oldnewlabel{#1}{{#2}{#3}}}
\AtEndDocument{\ifx\hyper@anchor\@undefined
\let\contentsline\oldcontentsline
\let\newlabel\oldnewlabel
\fi}
\fi}
\global\let\hyper@last\relax 
\gdef\HyperFirstAtBeginDocument#1{#1}
\providecommand\HyField@AuxAddToFields[1]{}
\providecommand\HyField@AuxAddToCoFields[2]{}
\babel@aux{ngerman}{}
\@writefile{toc}{\contentsline {section}{\numberline {1}Vorrichtungen zum Testen}{2}{section.1}}
\@writefile{toc}{\contentsline {subsection}{\numberline {1.1}Automatisierte Tests}{2}{subsection.2}}
\@writefile{toc}{\contentsline {subsection}{\numberline {1.2}Manuelle Tests}{2}{subsection.3}}
\@writefile{toc}{\contentsline {section}{\numberline {2}Aktuelle Funktionen}{2}{section.4}}
\@writefile{toc}{\contentsline {subsection}{\numberline {2.1}Automatisierte Tests}{2}{subsection.5}}
\@writefile{toc}{\contentsline {subsection}{\numberline {2.2}Manuelle Tests}{2}{subsection.6}}
\@writefile{toc}{\contentsline {subsubsection}{\numberline {2.2.1}User Interface}{3}{subsubsection.7}}
\@writefile{toc}{\contentsline {subsection}{\numberline {2.3}Fortschritt im Releaseplan}{3}{subsection.8}}
