\relax 
\providecommand\hyper@newdestlabel[2]{}
\providecommand*\new@tpo@label[2]{}
\catcode `"\active 
\catcode 95\active
\providecommand\HyperFirstAtBeginDocument{\AtBeginDocument}
\HyperFirstAtBeginDocument{\ifx\hyper@anchor\@undefined
\global\let\oldcontentsline\contentsline
\gdef\contentsline#1#2#3#4{\oldcontentsline{#1}{#2}{#3}}
\global\let\oldnewlabel\newlabel
\gdef\newlabel#1#2{\newlabelxx{#1}#2}
\gdef\newlabelxx#1#2#3#4#5#6{\oldnewlabel{#1}{{#2}{#3}}}
\AtEndDocument{\ifx\hyper@anchor\@undefined
\let\contentsline\oldcontentsline
\let\newlabel\oldnewlabel
\fi}
\fi}
\global\let\hyper@last\relax 
\gdef\HyperFirstAtBeginDocument#1{#1}
\providecommand\HyField@AuxAddToFields[1]{}
\providecommand\HyField@AuxAddToCoFields[2]{}
\babel@aux{ngerman}{}
\@writefile{toc}{\contentsline {section}{\numberline {1}Visionen und Ziele}{3}{section.2}}
\@writefile{toc}{\contentsline {section}{\numberline {2}Rahmenbedingungen und Produkteinsatz}{3}{section.3}}
\@writefile{toc}{\contentsline {section}{\numberline {3}Kontext und \IeC {\"U}berblick}{3}{section.4}}
\@writefile{lof}{\contentsline {figure}{\numberline {1}{\ignorespaces Use-Case Diagramm\relax }}{3}{figure.5}}
\newlabel{fig:suche}{{1}{3}{Use-Case Diagramm\relax }{figure.5}{}}
\@writefile{toc}{\contentsline {section}{\numberline {4}Funktionale Anforderungen}{4}{section.6}}
\@writefile{toc}{\contentsline {subsection}{\numberline {4.1}Erforderlich}{4}{subsection.7}}
\@writefile{toc}{\contentsline {subsubsection}{\numberline {4.1.1}Suche}{4}{subsubsection.8}}
\@writefile{toc}{\contentsline {subsubsection}{\numberline {4.1.2}Ergebnisliste}{4}{subsubsection.9}}
\@writefile{toc}{\contentsline {subsubsection}{\numberline {4.1.3}Detailseite}{4}{subsubsection.10}}
\@writefile{toc}{\contentsline {subsection}{\numberline {4.2}Optional}{5}{subsection.11}}
\@writefile{toc}{\contentsline {subsubsection}{\numberline {4.2.1}Suche}{5}{subsubsection.12}}
\@writefile{toc}{\contentsline {subsubsection}{\numberline {4.2.2}Ergebnisliste}{5}{subsubsection.13}}
\@writefile{toc}{\contentsline {subsubsection}{\numberline {4.2.3}Detailseite}{5}{subsubsection.14}}
\@writefile{toc}{\contentsline {subsubsection}{\numberline {4.2.4}Autorenseite}{6}{subsubsection.15}}
\@writefile{toc}{\contentsline {section}{\numberline {5}Produktdaten und nichtfunktionale Anforderungen}{6}{section.16}}
\@writefile{toc}{\contentsline {subsection}{\numberline {5.1}Erforderlich}{6}{subsection.17}}
\@writefile{toc}{\contentsline {subsection}{\numberline {5.2}Optional}{6}{subsection.18}}
\@writefile{toc}{\contentsline {section}{\numberline {6}Qualit\IeC {\"a}tsmatrix nach ISO 25010}{7}{section.19}}
\@writefile{toc}{\contentsline {section}{\numberline {7}Lieferumfang und Abnahmekriterien}{7}{section.20}}
\@writefile{toc}{\contentsline {subsection}{\numberline {7.1}Lieferumfang}{7}{subsection.21}}
\@writefile{toc}{\contentsline {subsection}{\numberline {7.2}Abnahmekriterien}{7}{subsection.22}}
\@writefile{toc}{\contentsline {section}{\numberline {8}Vorprojekt}{7}{section.23}}
\@writefile{toc}{\contentsline {section}{\numberline {9}Glossar}{8}{section.24}}
\global\@namedef{scr@dte@section@lastmaxnumwidth}{10.85587pt}
\global\@namedef{scr@dte@subsection@lastmaxnumwidth}{18.26904pt}
\global\@namedef{scr@dte@subsubsection@lastmaxnumwidth}{26.73907pt}
