\babel@toc {ngerman}{}
\contentsline {section}{\numberline {1}Visionen und Ziele}{3}{section.2}
\contentsline {section}{\numberline {2}Rahmenbedingungen und Produkteinsatz}{3}{section.3}
\contentsline {section}{\numberline {3}Kontext und \IeC {\"U}berblick}{3}{section.4}
\contentsline {section}{\numberline {4}Funktionale Anforderungen}{4}{section.6}
\contentsline {subsection}{\numberline {4.1}Erforderlich}{4}{subsection.7}
\contentsline {subsubsection}{\numberline {4.1.1}Suche}{4}{subsubsection.8}
\contentsline {subsubsection}{\numberline {4.1.2}Ergebnisliste}{4}{subsubsection.9}
\contentsline {subsubsection}{\numberline {4.1.3}Detailseite}{4}{subsubsection.10}
\contentsline {subsection}{\numberline {4.2}Optional}{5}{subsection.11}
\contentsline {subsubsection}{\numberline {4.2.1}Suche}{5}{subsubsection.12}
\contentsline {subsubsection}{\numberline {4.2.2}Ergebnisliste}{5}{subsubsection.13}
\contentsline {subsubsection}{\numberline {4.2.3}Detailseite}{5}{subsubsection.14}
\contentsline {subsubsection}{\numberline {4.2.4}Autorenseite}{6}{subsubsection.15}
\contentsline {section}{\numberline {5}Produktdaten und nichtfunktionale Anforderungen}{6}{section.16}
\contentsline {subsection}{\numberline {5.1}Erforderlich}{6}{subsection.17}
\contentsline {subsection}{\numberline {5.2}Optional}{6}{subsection.18}
\contentsline {section}{\numberline {6}Qualit\IeC {\"a}tsmatrix nach ISO 25010}{7}{section.19}
\contentsline {section}{\numberline {7}Lieferumfang und Abnahmekriterien}{7}{section.20}
\contentsline {subsection}{\numberline {7.1}Lieferumfang}{7}{subsection.21}
\contentsline {subsection}{\numberline {7.2}Abnahmekriterien}{7}{subsection.22}
\contentsline {section}{\numberline {8}Vorprojekt}{7}{section.23}
\contentsline {section}{\numberline {9}Glossar}{8}{section.24}
